{
  "packageDirectories": [
    {
      "path": "force-app",
      "default": true,
      "package": "User Auto Enable",
      "versionName": "ver 0.1",
      "versionNumber": "0.1.0.NEXT"
    }
  ],
  "name": "sf-user-auto-activate",
  "namespace": "",
  "sfdcLoginUrl": "https://login.salesforce.com",
  "sourceApiVersion": "55.0",
  "packageAliases": {
    "User Auto Enable": "0Ho5G000000XZPWSA4",
    "User Auto Enable@0.1.0-1": "04t5G000004PwKiQAK"
  }
}
